com\softtek\academy\javaweb\configuration\FrontConfiguration.class
com\softtek\academy\javaweb\init\AppInitializer.class
com\softtek\academy\javaweb\configuration\JDBCConfiguration.class
com\softtek\academy\javaweb\dao\PersonDAO.class
com\softtek\academy\javaweb\service\PersonService.class
com\softtek\academy\javaweb\conexion\Conexion$getClose.class
com\softtek\academy\javaweb\controller\PersonController.class
com\softtek\academy\javaweb\repository\PersonRepository.class
com\softtek\academy\javaweb\service\PersonServiceImpl.class
com\softtek\academy\javaweb\dao\PersonRepository.class
com\softtek\academy\javaweb\conexion\Conexion.class
com\softtek\academy\javaweb\beans\Person.class
